20

41 22
11
3 0
6 0
23 0
5 11
11 4
27 1
15 14
13 17
23 0
31 8
19 12
73 4

21 49
30
12 46
12 37
11 42
10 42
10 24
10 14
7 16
10 0
15 41
11 5
6 27
11 30
0 6
6 45
19 33
10 29
16 40
12 39
14 44
0 22
19 40
8 21
10 20
4 0
19 34
14 25
13 39
12 40
7 40
12 15
30 6

4 39
16
2 12
2 21
0 36
2 27
1 3
0 29
3 5
1 0
2 11
2 23
3 8
3 32
0 25
1 27
2 17
2 15
22 6

8 41
28
7 0
0 38
6 19
7 23
5 29
4 25
7 40
2 36
5 37
1 21
4 25
7 28
7 1
4 40
6 19
2 40
1 40
7 4
4 27
2 38
6 18
6 16
4 25
0 15
7 0
2 1
2 39
4 40
72 1

35 14
23
26 9
2 11
4 1
31 12
5 2
15 13
18 6
30 2
29 9
11 1
12 2
4 11
11 8
4 4
24 6
14 6
20 4
15 10
13 6
2 3
11 8
21 9
32 13
24 9

26 49
18
18 32
2 27
4 46
25 37
14 40
2 20
18 33
22 21
11 18
4 8
12 23
25 30
1 38
3 30
15 26
14 12
12 46
19 42
83 8

47 16
24
2 3
20 9
23 4
7 1
24 1
2 3
40 1
18 11
28 7
22 9
16 11
37 11
15 12
18 9
45 7
20 3
6 0
27 7
25 0
33 14
15 13
25 3
42 1
18 13
77 5

29 5
23
14 1
18 4
21 1
4 0
20 4
18 0
14 1
0 3
2 2
14 2
27 2
9 1
15 1
19 1
28 1
8 3
1 2
2 4
19 3
1 4
4 3
7 4
5 3
95 9

49 43
11
7 39
37 42
5 20
28 23
39 26
48 40
20 9
7 12
34 36
2 6
1 36
89 8

8 18
20
1 15
0 0
0 8
2 7
3 9
3 7
2 3
0 14
7 15
6 4
3 8
4 4
3 15
2 4
4 7
5 4
0 14
7 8
2 0
3 4
60 4

2 22
14
1 5
1 9
1 2
1 20
0 5
1 1
1 7
0 4
1 4
1 2
0 4
1 10
1 10
1 5
99 6

21 30
29
18 5
5 0
10 25
4 12
6 28
4 18
14 20
10 25
6 26
7 4
8 9
11 17
9 2
17 26
11 16
4 4
16 19
20 20
18 1
14 15
2 19
8 21
8 4
10 14
9 2
8 29
10 28
17 6
5 7
79 6

48 34
30
24 30
2 4
6 0
27 32
22 9
40 16
28 12
17 7
32 10
3 11
42 0
11 31
27 11
42 14
24 5
21 10
18 0
4 21
30 23
28 21
6 26
10 31
20 18
22 0
35 9
17 16
43 2
20 15
43 13
47 13
81 2

20 50
16
11 38
2 22
5 37
11 8
18 18
2 35
5 14
2 2
1 14
11 31
8 17
9 28
0 38
7 35
8 39
3 0
17 10

47 40
20
35 16
7 9
32 21
25 2
3 23
22 32
9 31
23 23
39 13
14 8
33 37
45 17
36 24
21 19
21 32
43 4
32 10
43 14
14 27
12 23
79 5

40 12
19
3 8
27 6
23 9
35 10
4 8
24 5
8 10
32 4
38 3
19 10
37 0
5 11
6 5
10 7
7 5
32 3
14 11
27 8
33 0
22 2

47 30
16
20 6
29 0
37 23
14 0
29 29
40 29
39 10
24 25
46 26
46 8
30 15
37 1
18 1
38 23
10 7
45 6
83 8

48 28
30
19 17
45 7
33 4
28 21
4 8
24 8
41 12
33 2
31 26
10 1
2 6
6 17
12 1
13 16
12 8
27 4
22 14
47 0
46 5
8 11
35 25
35 8
47 7
24 19
17 14
26 7
29 0
15 5
2 13
34 25
16 8

10 2
25
5 0
1 0
1 0
7 0
9 0
3 1
5 1
2 1
5 1
0 1
3 1
9 0
6 1
9 0
2 1
1 1
3 1
7 0
2 0
5 0
6 1
9 1
3 1
6 1
1 1
28 3

30 20
27
12 5
2 8
24 14
3 17
22 4
6 6
10 9
2 19
13 11
26 8
19 7
15 8
16 14
6 5
25 19
6 11
13 0
20 5
16 14
16 8
3 14
19 7
20 11
11 14
12 17
6 1
0 6
33 4
