24

42 70
9
6 33
35 38
38 3
32 48
21 32
36 35
4 27
18 15
35 5
185 176

162 148
9
34 127
56 143
127 90
60 96
97 97
99 44
125 108
69 133
47 28
103 3

68 104
16
66 89
35 29
19 103
8 98
20 39
31 18
41 29
35 1
62 64
19 68
10 4
54 75
66 83
21 85
30 74
6 71
109 54

8 151
3
2 138
1 130
6 90
200 16

152 24
30
93 9
82 2
63 23
116 20
136 19
40 21
88 12
101 8
35 1
76 16
85 13
100 6
137 19
142 15
34 10
118 19
103 0
131 22
127 4
103 13
142 6
5 10
41 12
129 7
70 5
71 16
125 18
0 5
35 5
148 1
132 42

32 1
21
7 0
7 0
14 0
3 0
13 0
21 0
20 0
8 0
2 0
29 0
13 0
15 0
2 0
2 0
4 0
12 0
4 0
9 0
24 0
5 0
6 0
187 148

119 70
20
55 8
31 15
92 61
21 50
21 14
18 16
94 29
89 55
62 53
2 7
50 26
54 27
96 40
53 53
86 33
88 20
75 33
4 55
54 67
25 26
125 167

111 185
11
6 47
54 52
98 150
64 21
71 107
30 119
5 18
33 95
90 133
0 79
2 107
123 90

136 28
4
37 20
9 9
88 11
43 20
1 180

67 72
19
36 62
24 40
11 29
35 52
45 59
57 68
36 53
37 23
34 57
54 19
52 14
46 21
13 68
27 45
17 5
4 33
62 42
25 21
5 47
146 54

36 100
11
25 9
16 43
13 6
15 36
20 73
18 76
30 19
6 90
12 75
10 66
32 11
26 181

136 56
14
84 13
96 35
48 6
6 2
62 46
33 18
33 5
56 20
40 42
110 9
101 4
45 41
47 7
20 41
16 78

52 67
27
3 25
0 39
49 35
4 34
20 8
48 16
32 41
26 10
47 48
5 48
10 61
6 8
51 29
45 55
22 28
24 28
14 7
26 31
26 37
17 6
7 36
43 4
40 21
11 60
27 47
29 55
48 30
189 85

45 7
20
10 3
7 0
22 2
6 4
42 2
8 0
25 1
43 0
34 2
9 4
39 1
14 0
5 3
33 3
27 2
14 6
32 0
31 6
20 5
23 1
143 82

84 182
10
74 98
56 80
51 121
10 81
39 122
64 66
14 53
61 171
37 172
38 74
23 30

114 145
11
83 48
38 37
48 81
72 58
79 51
82 139
106 14
25 113
61 71
64 117
81 100
12 102

79 193
7
30 7
11 173
57 58
65 91
70 24
75 32
21 141
51 119

181 8
10
9 0
20 3
21 1
174 5
167 3
77 7
41 7
133 6
29 4
80 1
121 100

190 189
27
116 96
79 28
148 163
89 73
102 164
69 35
69 66
27 155
162 21
41 103
167 170
134 68
156 4
152 171
124 173
112 41
85 53
181 166
175 89
65 87
124 6
19 42
145 7
139 120
174 168
148 45
18 58
60 145

92 194
27
0 70
12 193
66 108
23 101
64 123
23 97
91 180
2 78
24 183
23 64
76 28
89 101
73 1
69 168
85 150
15 136
7 173
55 108
22 35
52 92
90 35
89 69
12 148
39 102
65 51
58 47
31 89
78 21

181 143
24
154 65
94 16
106 15
4 76
115 123
103 46
12 128
31 12
32 102
111 81
41 2
103 36
119 55
14 49
170 55
177 120
2 136
67 76
48 52
21 75
149 21
82 134
0 114
93 70
46 59

184 6
2
124 5
45 1
149 173

133 143
20
31 34
95 9
55 44
36 58
104 41
45 43
45 27
95 62
8 142
46 95
44 56
107 130
31 11
32 34
20 100
8 136
88 24
22 36
131 74
27 47
144 180

30 200
20
28 85
22 138
16 196
27 18
13 183
22 50
2 1
15 112
0 193
10 45
21 12
2 51
25 122
10 88
15 181
19 175
19 85
25 57
5 62
9 177
172 108
