28

18 15
12
5 6
1 5
12 13
14 6
10 10
12 12
4 10
13 7
15 3
8 14
10 8
3 4
100 11

2 13
21
0 10
0 11
1 6
0 11
1 11
0 3
1 2
1 10
0 5
1 3
1 12
1 3
1 4
1 7
0 1
0 10
0 11
0 12
0 3
1 11
0 8
175 50

11 16
27
5 11
9 2
10 3
6 2
9 15
10 8
3 8
9 4
7 1
3 11
0 3
7 2
8 7
9 14
4 4
4 15
4 0
6 5
1 10
8 8
10 3
5 7
6 7
7 7
10 14
3 3
1 6
177 19

9 19
9
3 13
1 4
5 6
4 7
1 7
2 16
8 13
1 0
8 8
48 19

14 5
14
10 3
13 0
1 1
7 0
11 3
1 3
9 3
6 4
0 1
5 0
12 3
4 0
1 3
9 0
151 45

9 7
29
1 3
2 1
6 1
7 1
7 6
0 1
3 1
4 2
1 3
8 2
3 6
4 1
4 0
8 6
1 5
4 3
7 2
7 4
4 3
8 1
2 6
4 6
3 4
7 5
3 6
0 4
2 2
5 6
3 0
9 46

14 18
27
11 3
0 1
7 16
10 1
8 6
7 16
9 12
2 4
13 7
3 16
9 9
2 17
2 11
0 6
12 3
4 12
6 3
8 8
1 7
3 14
1 8
2 5
0 4
3 3
1 12
10 12
2 10
156 38

2 14
16
0 1
1 3
1 3
1 4
1 13
1 5
0 13
1 10
1 13
0 10
0 0
1 3
1 4
1 5
1 2
0 0
1 1

13 15
4
8 2
2 9
2 6
0 0
79 47

10 12
20
5 9
7 3
5 0
0 11
1 8
2 9
1 11
8 0
5 1
6 1
4 1
6 0
7 4
4 10
2 6
1 3
9 9
2 11
9 7
2 4
66 35

20 18
20
9 8
7 16
2 11
16 14
18 16
3 14
7 6
4 7
4 5
11 6
2 17
11 8
10 15
6 11
13 14
14 7
1 4
17 7
3 2
12 1
172 19

7 16
26
6 2
6 5
4 10
2 4
0 7
0 12
3 13
1 2
0 5
6 14
2 9
1 6
1 5
6 1
5 13
5 15
2 8
1 11
1 6
1 13
6 15
5 4
3 10
6 2
4 11
0 9
185 20

5 14
16
1 7
1 7
4 9
2 10
0 5
0 1
0 5
0 9
4 0
0 4
2 3
4 1
3 0
0 8
4 11
4 11
71 37

10 7
20
6 4
0 0
3 3
1 1
5 5
6 6
8 1
9 1
2 6
2 0
7 4
2 5
1 0
4 0
0 5
8 0
4 2
0 2
2 5
3 1
1 36

6 17
2
0 9
1 0
167 22

19 12
30
7 0
5 10
4 8
8 9
6 6
0 6
4 11
7 5
2 0
12 2
5 5
1 11
7 1
7 1
17 3
0 4
14 8
3 10
5 11
16 9
4 1
2 2
18 7
18 2
7 1
8 8
6 11
10 0
8 9
6 8
117 39

3 3
22
2 1
1 2
1 2
2 2
2 0
1 0
2 1
1 2
1 2
0 1
1 1
1 2
1 0
2 2
2 0
0 0
2 0
2 2
1 1
1 1
1 2
1 2
123 43

5 8
1
0 3
98 39

6 20
14
5 11
2 3
4 8
5 8
1 2
1 14
0 2
5 10
5 2
0 7
4 14
2 18
5 10
4 15
158 28

18 4
21
9 3
1 2
1 3
15 0
11 1
7 1
4 0
7 1
5 1
1 0
16 1
6 1
13 0
11 0
15 3
16 1
9 1
12 3
4 1
6 0
15 1
177 13

12 5
15
6 1
5 0
8 0
9 2
11 0
7 2
1 3
0 2
8 1
10 1
1 4
2 1
3 3
2 4
5 4
161 37

17 9
13
1 2
12 6
13 4
16 0
9 8
3 8
11 4
8 6
1 4
4 5
9 6
4 0
7 8
48 50

15 14
6
8 8
8 12
7 3
13 7
13 7
10 13
48 11

18 6
11
2 3
2 0
5 5
13 5
0 3
3 3
10 3
4 4
13 4
10 5
10 3
78 10

10 20
17
8 16
0 1
9 18
1 11
9 2
3 15
6 17
7 0
7 6
9 17
9 12
8 17
6 9
4 14
9 15
7 13
1 14
152 35

5 2
29
0 1
4 0
2 0
1 0
3 0
3 0
0 0
3 0
2 1
0 0
4 1
3 1
0 1
2 0
4 0
3 1
0 1
1 0
4 1
2 1
4 1
2 0
1 0
4 1
1 1
2 0
3 0
1 1
2 0
177 32

8 18
11
0 13
6 2
0 0
3 5
0 0
5 8
0 4
5 5
2 14
5 5
7 14
173 13

12 4
25
1 1
1 0
7 2
3 0
4 3
10 2
6 3
3 0
8 1
11 3
8 2
3 3
4 0
2 3
11 2
3 3
9 1
10 1
8 1
5 0
3 3
3 0
3 3
8 3
10 3
60 10
