30

1 2
13
0 0
0 0
0 0
0 0
0 0
0 0
0 0
0 1
0 0
0 0
0 0
0 0
0 1
46 24

6 2
21
4 0
5 0
2 0
2 0
4 0
3 1
3 1
5 0
3 0
5 0
3 1
3 1
5 0
4 1
3 1
3 1
1 0
2 1
0 0
2 1
0 0
3 115

1 6
25
0 1
0 1
0 2
0 1
0 5
0 1
0 5
0 3
0 0
0 3
0 2
0 2
0 5
0 1
0 5
0 4
0 4
0 5
0 1
0 2
0 5
0 4
0 5
0 2
0 0
24 50

5 1
5
4 0
4 0
4 0
1 0
0 0
26 56

5 7
6
2 6
1 1
0 2
3 4
0 6
0 1
46 87

4 1
10
2 0
2 0
3 0
2 0
0 0
3 0
3 0
3 0
3 0
2 0
5 132

3 7
11
2 6
2 2
0 1
0 0
0 5
2 4
1 4
2 3
2 1
2 0
0 3
47 38

4 1
12
3 0
3 0
1 0
2 0
0 0
2 0
1 0
1 0
0 0
2 0
2 0
3 0
39 144

4 5
22
2 0
3 4
1 2
2 2
1 0
2 0
0 2
1 0
1 0
3 2
2 0
3 0
0 0
2 2
1 0
3 3
3 3
1 0
2 3
3 2
3 0
1 2
38 85

1 3
12
0 0
0 2
0 0
0 0
0 2
0 2
0 1
0 0
0 2
0 0
0 2
0 2
29 44

1 3
7
0 0
0 1
0 0
0 0
0 0
0 1
0 0
7 60

4 5
10
3 2
2 1
0 1
1 4
3 4
2 0
2 3
3 4
0 3
3 3
41 49

5 6
2
1 0
2 3
7 168

2 2
27
1 1
1 1
0 1
1 1
0 1
0 1
1 0
0 1
0 1
0 1
1 0
1 0
0 0
0 1
1 0
1 0
1 1
0 0
0 0
0 1
1 1
0 1
1 0
0 1
0 0
0 1
0 0
39 130

6 7
17
2 0
5 4
0 1
1 0
3 2
2 5
5 5
0 6
3 6
2 3
5 1
2 3
5 5
5 4
0 6
3 3
0 0
4 20

3 6
14
0 0
2 2
2 1
1 0
2 5
2 0
0 5
2 5
0 0
1 4
2 5
2 5
2 2
2 1
17 55

1 5
22
0 3
0 4
0 4
0 2
0 2
0 3
0 3
0 1
0 4
0 1
0 1
0 2
0 1
0 2
0 0
0 1
0 1
0 1
0 2
0 0
0 4
0 2
31 68

3 3
3
1 1
2 2
1 1
30 77

3 6
28
0 1
1 1
1 1
2 4
1 5
0 4
0 5
0 1
1 2
2 2
1 5
0 4
2 0
2 1
2 4
2 4
0 2
1 1
1 1
1 2
0 3
2 2
2 2
1 0
2 1
0 1
2 4
1 1
26 19

6 6
22
2 3
2 5
0 3
0 0
4 2
1 5
4 2
0 0
5 3
2 4
5 1
2 1
4 2
0 4
0 0
5 0
0 5
3 1
5 2
3 5
5 1
2 0
22 194

6 3
3
4 2
4 2
2 2
42 156

4 1
30
1 0
3 0
0 0
3 0
1 0
2 0
3 0
0 0
0 0
0 0
0 0
1 0
1 0
0 0
0 0
2 0
2 0
0 0
1 0
3 0
0 0
0 0
3 0
0 0
0 0
1 0
0 0
1 0
3 0
3 0
25 54

3 7
20
1 0
0 3
0 0
1 0
2 2
1 3
2 1
0 2
2 3
1 5
2 6
2 4
0 4
0 2
2 3
1 6
2 5
2 5
1 3
1 1
27 95

5 4
5
0 2
1 3
3 2
0 1
2 3
45 65

7 3
9
4 2
0 1
5 1
3 2
3 2
2 2
4 1
4 1
4 0
30 75

4 6
19
2 0
0 2
3 3
2 2
0 1
2 1
2 2
3 4
3 1
1 5
0 3
2 0
3 2
2 4
3 2
0 0
3 4
2 2
2 5
42 168

5 6
16
4 1
0 3
3 0
4 1
0 4
4 5
4 3
4 4
3 1
4 3
2 5
0 3
2 1
4 4
2 4
2 4
8 134

3 5
26
2 0
2 2
1 2
0 4
1 0
1 1
0 2
1 1
2 0
2 4
2 1
1 3
0 4
0 2
2 1
1 4
0 0
2 1
1 2
2 0
2 2
1 4
1 2
1 3
2 4
2 3
17 81

3 7
29
0 6
1 5
0 6
1 0
2 6
0 4
2 0
0 1
0 6
2 4
0 6
0 0
0 6
2 4
0 2
1 1
1 2
2 2
0 4
2 4
0 5
0 6
2 0
0 5
0 1
2 3
0 4
1 2
0 0
13 41

1 7
18
0 4
0 2
0 6
0 0
0 4
0 2
0 0
0 5
0 2
0 0
0 5
0 4
0 1
0 1
0 4
0 1
0 3
0 1
49 163
