*** Life<ConwayCell> 9x7 ***

Generation = 0, Population = 7.
....**.
......*
*......
.......
*......
......*
.......
.....*.
.......

Generation = 2, Population = 0.
.......
.......
.......
.......
.......
.......
.......
.......
.......

Generation = 4, Population = 0.
.......
.......
.......
.......
.......
.......
.......
.......
.......

Generation = 6, Population = 0.
.......
.......
.......
.......
.......
.......
.......
.......
.......

Generation = 8, Population = 0.
.......
.......
.......
.......
.......
.......
.......
.......
.......

Generation = 10, Population = 0.
.......
.......
.......
.......
.......
.......
.......
.......
.......

Generation = 12, Population = 0.
.......
.......
.......
.......
.......
.......
.......
.......
.......

Generation = 14, Population = 0.
.......
.......
.......
.......
.......
.......
.......
.......
.......

Generation = 16, Population = 0.
.......
.......
.......
.......
.......
.......
.......
.......
.......

Generation = 18, Population = 0.
.......
.......
.......
.......
.......
.......
.......
.......
.......

Generation = 20, Population = 0.
.......
.......
.......
.......
.......
.......
.......
.......
.......

Generation = 22, Population = 0.
.......
.......
.......
.......
.......
.......
.......
.......
.......

Generation = 24, Population = 0.
.......
.......
.......
.......
.......
.......
.......
.......
.......

*** Life<ConwayCell> 15x16 ***

Generation = 0, Population = 26.
................
.*..............
.....*.*..**...*
*........*......
................
*.....*......*..
....*...*..*.*..
.*......*.......
**.............*
........*.......
................
................
.....**.*.......
....*...........
.....*..........

*** Life<ConwayCell> 14x4 ***

Generation = 0, Population = 16.
..**
....
.*.*
..**
....
...*
....
*.*.
**..
.*..
.***
....
..*.
....

*** Life<ConwayCell> 13x12 ***

Generation = 0, Population = 11.
............
....*...*...
........*...
............
...........*
.........*..
..........**
...*........
...........*
.....*......
..*.........
............
............

*** Life<ConwayCell> 6x6 ***

Generation = 0, Population = 3.
..**..
.....*
......
......
......
......

Generation = 4, Population = 0.
......
......
......
......
......
......

Generation = 8, Population = 0.
......
......
......
......
......
......

*** Life<ConwayCell> 20x1 ***

Generation = 0, Population = 8.
.
*
*
.
.
.
.
.
.
.
.
.
*
*
.
*
*
*
.
*

Generation = 16, Population = 0.
.
.
.
.
.
.
.
.
.
.
.
.
.
.
.
.
.
.
.
.

*** Life<ConwayCell> 5x6 ***

Generation = 0, Population = 7.
...*..
......
*..**.
.*.*.*
......

Generation = 14, Population = 0.
......
......
......
......
......

*** Life<ConwayCell> 5x11 ***

Generation = 0, Population = 1.
...........
.........*.
...........
...........
...........

*** Life<ConwayCell> 8x3 ***

Generation = 0, Population = 14.
...
**.
.**
*..
**.
..*
***
***

Generation = 4, Population = 8.
.**
*.*
*.*
*..
*..
...
...
...

Generation = 8, Population = 5.
.**
*.*
.*.
...
...
...
...
...

Generation = 12, Population = 5.
.**
*.*
.*.
...
...
...
...
...

Generation = 16, Population = 5.
.**
*.*
.*.
...
...
...
...
...

Generation = 20, Population = 5.
.**
*.*
.*.
...
...
...
...
...

Generation = 24, Population = 5.
.**
*.*
.*.
...
...
...
...
...

*** Life<ConwayCell> 9x7 ***

Generation = 0, Population = 17.
....**.
..*....
...*.*.
.*..*..
....**.
.......
..***.*
..**...
**.....

Generation = 3, Population = 9.
.......
..**...
.**....
...*...
.......
...*.*.
...*...
..*....
.......

Generation = 6, Population = 12.
.**....
.*.*...
.*.....
..*....
....*..
.....*.
...*.*.
...**..
.......

Generation = 9, Population = 10.
**.....
..*....
**.....
.......
.......
....*..
...*.*.
...**..
.......

Generation = 12, Population = 5.
.......
.......
.......
.......
.......
....*..
...*.*.
...**..
.......

Generation = 15, Population = 5.
.......
.......
.......
.......
.......
....*..
...*.*.
...**..
.......

*** Life<ConwayCell> 13x20 ***

Generation = 0, Population = 6.
....................
...*................
....................
....................
*...................
....................
....................
....................
....................
....................
....................
...**...............
...........*......*.

Generation = 16, Population = 0.
....................
....................
....................
....................
....................
....................
....................
....................
....................
....................
....................
....................
....................

*** Life<ConwayCell> 9x13 ***

Generation = 0, Population = 2.
.............
.............
......*......
.............
.............
.............
.............
.............
.....*.......

Generation = 14, Population = 0.
.............
.............
.............
.............
.............
.............
.............
.............
.............

*** Life<ConwayCell> 5x17 ***

Generation = 0, Population = 23.
*.*...*.....*....
....*.......**.*.
***.**...........
*..**............
*.***..*..*...*..

Generation = 13, Population = 8.
............**...
..**........**...
..**.............
.................
.................

*** Life<ConwayCell> 6x1 ***

Generation = 0, Population = 6.
*
*
*
*
*
*

Generation = 7, Population = 0.
.
.
.
.
.
.

Generation = 14, Population = 0.
.
.
.
.
.
.

Generation = 21, Population = 0.
.
.
.
.
.
.

Generation = 28, Population = 0.
.
.
.
.
.
.

*** Life<ConwayCell> 6x11 ***

Generation = 0, Population = 14.
...**...*..
.....**....
...........
*.......*..
..*.....*.*
**.....**..

Generation = 10, Population = 8.
....**.....
....**.....
...........
...........
.......**..
.......**..

*** Life<ConwayCell> 8x13 ***

Generation = 0, Population = 1.
.............
.............
.............
.............
.............
.............
..*..........
.............

*** Life<ConwayCell> 4x19 ***

Generation = 0, Population = 11.
.*.................
......*...........*
...*.*.*...........
.*..*.*.*.........*

Generation = 2, Population = 6.
...................
.....**............
....*..*...........
....*..*...........

Generation = 4, Population = 4.
...................
.....**............
.....**............
...................

Generation = 6, Population = 4.
...................
.....**............
.....**............
...................

Generation = 8, Population = 4.
...................
.....**............
.....**............
...................

Generation = 10, Population = 4.
...................
.....**............
.....**............
...................

Generation = 12, Population = 4.
...................
.....**............
.....**............
...................

Generation = 14, Population = 4.
...................
.....**............
.....**............
...................

Generation = 16, Population = 4.
...................
.....**............
.....**............
...................

Generation = 18, Population = 4.
...................
.....**............
.....**............
...................

Generation = 20, Population = 4.
...................
.....**............
.....**............
...................

Generation = 22, Population = 4.
...................
.....**............
.....**............
...................

*** Life<ConwayCell> 7x14 ***

Generation = 0, Population = 22.
.**.*.........
.......*......
***.*...***...
..............
.*.*.....**...
....*......*..
.*...*.**..*..

*** Life<ConwayCell> 5x15 ***

Generation = 0, Population = 16.
..*......***...
.....*....****.
...*...........
.......*.*.*...
.........**.*..

Generation = 19, Population = 0.
...............
...............
...............
...............
...............

*** Life<ConwayCell> 7x7 ***

Generation = 0, Population = 1.
.......
.......
.......
.......
.......
.......
......*

*** Life<ConwayCell> 8x6 ***

Generation = 0, Population = 11.
...***
....*.
...*..
.*....
....*.
*..*..
......
.*...*

*** Life<ConwayCell> 10x18 ***

Generation = 0, Population = 10.
.........*........
......*...........
.*............*...
.....*....*.......
..................
..............*...
.......*.....*....
..................
..................
.....*............

*** Life<ConwayCell> 2x1 ***

Generation = 0, Population = 2.
*
*

Generation = 2, Population = 0.
.
.

Generation = 4, Population = 0.
.
.

Generation = 6, Population = 0.
.
.

*** Life<ConwayCell> 9x18 ***

Generation = 0, Population = 17.
...........*......
*...............*.
..*............*..
.........*........
.*.*....*..*..*..*
........*.........
......*....*.....*
.....*............
..................

*** Life<ConwayCell> 16x19 ***

Generation = 0, Population = 13.
.......*.....*.....
..................*
...................
...................
.......*.....*...*.
.................*.
.....*.............
...................
...................
...................
..................*
...................
....*..............
...*...*...........
...................
..........*........

Generation = 3, Population = 0.
...................
...................
...................
...................
...................
...................
...................
...................
...................
...................
...................
...................
...................
...................
...................
...................

Generation = 6, Population = 0.
...................
...................
...................
...................
...................
...................
...................
...................
...................
...................
...................
...................
...................
...................
...................
...................

Generation = 9, Population = 0.
...................
...................
...................
...................
...................
...................
...................
...................
...................
...................
...................
...................
...................
...................
...................
...................

Generation = 12, Population = 0.
...................
...................
...................
...................
...................
...................
...................
...................
...................
...................
...................
...................
...................
...................
...................
...................

Generation = 15, Population = 0.
...................
...................
...................
...................
...................
...................
...................
...................
...................
...................
...................
...................
...................
...................
...................
...................

*** Life<ConwayCell> 14x13 ***

Generation = 0, Population = 26.
...*.*.......
*.*..*.......
**.*....*...*
......*.....*
............*
...........*.
.........*...
.............
..*..........
............*
.*.*.....*.*.
.*......*..*.
........*....
....*........

Generation = 16, Population = 22.
.............
.............
.............
...........**
...........**
.............
.............
.........***.
........*..*.
...*.**......
.**..**....*.
...**........
......*..*.*.
.............

*** Life<ConwayCell> 3x6 ***

Generation = 0, Population = 14.
*.**.*
**.**.
******

*** Life<ConwayCell> 13x14 ***

Generation = 0, Population = 23.
....*....*...*
....*.*.......
...**..*......
.*..**........
..............
...**.....*...
*.......*..*.*
..............
..............
..........*...
.......*......
.....*....*...
....*.........

*** Life<ConwayCell> 19x10 ***

Generation = 0, Population = 22.
.....*....
......*...
........*.
..........
..*..*....
*.........
..**......
*.........
..........
.....*....
....*.*...
.*...*....
.**.*....*
*.........
..........
.....*....
..........
.........*
.......*..

