27

14 20
17
1 5
2 9
5 5
3 19
3 8
4 6
5 12
11 6
11 0
13 10
0 15
11 4
2 6
9 6
7 6
5 1
13 13
38 2

40 5
20
4 3
20 1
6 0
16 0
11 0
35 2
9 1
37 3
13 4
29 1
30 2
12 3
20 2
23 4
5 2
13 4
6 1
24 3
23 0
6 1
3 5

26 11
7
0 5
15 6
8 3
18 5
0 10
14 0
13 7
24 5

17 31
2
13 17
1 10
49 4

7 22
18
6 20
0 10
5 18
6 2
1 8
3 19
4 15
0 5
5 5
3 0
5 8
2 6
4 13
3 4
2 12
1 9
6 20
5 18
26 1

23 9
24
9 0
0 7
0 5
11 1
7 5
4 5
1 5
1 8
11 4
18 1
4 5
17 5
1 2
16 6
12 6
11 2
5 6
8 3
14 1
4 3
4 6
9 6
6 7
11 8
26 2

39 16
23
16 14
38 8
20 10
15 7
0 15
36 2
25 13
1 9
12 12
33 2
24 7
38 2
12 0
9 3
7 10
26 9
37 8
23 5
16 0
7 4
14 6
30 0
23 7
23 5

30 36
13
21 23
8 13
18 12
9 12
19 0
27 11
25 29
18 5
14 29
1 28
27 7
3 1
10 32
4 4

31 43
21
4 27
11 12
9 0
9 8
12 13
28 28
23 40
30 10
22 17
7 38
28 2
2 42
15 14
28 0
26 9
22 37
12 41
7 25
28 41
14 25
30 31
27 5

2 26
14
1 15
0 10
1 6
0 14
1 12
0 7
1 13
0 13
1 23
1 5
0 0
0 5
1 19
1 17
39 3

3 18
19
2 9
2 6
1 14
0 0
1 16
2 0
0 6
2 3
0 12
0 2
0 3
0 13
0 15
0 6
2 14
0 9
2 15
2 6
1 17
47 1

31 34
24
1 7
21 33
9 21
9 18
16 18
9 25
20 15
24 10
17 12
28 4
14 27
23 22
28 3
9 13
1 31
7 26
6 30
9 14
6 27
29 13
25 2
27 14
11 30
1 32
7 4

22 2
22
13 1
3 1
12 0
0 1
15 1
17 1
20 0
14 0
21 0
1 1
3 0
3 1
2 1
5 1
14 0
13 0
15 0
4 0
18 0
12 1
15 0
12 0
3 5

1 29
10
0 10
0 10
0 24
0 19
0 23
0 10
0 10
0 27
0 4
0 6
48 1

48 48
7
2 9
8 20
39 30
11 1
39 45
17 0
25 47
45 2

21 40
8
14 0
16 20
6 30
5 36
1 2
12 5
18 8
7 20
41 4

17 13
25
11 6
13 2
13 4
12 0
12 4
12 4
0 2
2 5
8 5
12 4
7 10
0 12
8 7
8 0
10 0
11 12
6 3
5 6
13 3
9 11
8 8
13 12
12 0
14 6
6 3
39 4

47 18
11
42 13
28 4
26 16
39 2
17 8
25 11
30 10
19 6
32 1
19 3
22 3
26 2

12 30
8
0 7
10 25
8 1
11 18
10 12
8 4
7 11
5 9
15 4

29 16
23
19 1
28 9
9 11
8 7
2 15
3 3
14 7
0 3
2 3
13 14
2 4
17 15
27 8
20 2
1 14
17 12
17 5
1 13
11 10
19 7
19 13
3 6
3 13
44 1

39 32
21
31 9
4 5
4 4
1 24
4 22
38 31
8 12
26 12
32 21
29 3
37 9
19 30
4 28
14 29
33 4
24 29
12 19
29 30
34 26
31 16
31 18
30 1

25 50
6
10 19
16 49
13 25
6 41
24 3
22 7
45 2

23 7
13
17 5
21 1
2 6
19 3
7 3
17 3
4 2
18 1
20 2
21 2
10 4
4 6
5 4
48 1

9 46
4
5 42
6 37
3 29
2 14
11 4

8 33
24
1 16
5 8
1 32
1 0
2 24
1 26
3 5
2 30
2 20
2 7
0 0
4 14
3 12
3 29
6 27
6 21
2 9
7 4
0 15
4 26
2 6
2 22
1 20
3 27
16 2

49 4
3
2 2
20 2
12 3
5 4

10 6
11
7 1
7 4
8 4
4 3
5 0
4 4
7 2
0 5
7 1
5 4
8 2
46 2
